module github.com/docker/distribution

go 1.21

require (
	cloud.google.com/go/storage v1.39.1
	github.com/Azure/azure-sdk-for-go v68.0.0+incompatible
	github.com/DATA-DOG/go-sqlmock v1.5.2
	github.com/Shopify/toxiproxy/v2 v2.8.0
	github.com/alicebob/miniredis/v2 v2.31.1
	github.com/aws/aws-sdk-go v1.46.7
	github.com/benbjohnson/clock v1.3.5
	github.com/cenkalti/backoff/v4 v4.2.1
	github.com/denverdino/aliyungo v0.0.0-20230411124812-ab98a9173ace
	github.com/docker/go-metrics v0.0.1
	github.com/docker/libtrust v0.0.0-20160708172513-aabc10ec26b7
	github.com/eko/gocache/lib/v4 v4.1.5
	github.com/eko/gocache/store/redis/v4 v4.2.0
	github.com/getsentry/sentry-go v0.27.0
	github.com/go-redis/redismock/v9 v9.0.3
	github.com/golang/mock v1.6.0
	github.com/gorilla/handlers v1.5.2
	github.com/gorilla/mux v1.8.1
	github.com/hashicorp/go-multierror v1.1.1
	github.com/jackc/pgerrcode v0.0.0-20240316143900-6e2875d9b438
	github.com/jackc/pgx/v5 v5.5.3
	github.com/jszwec/csvutil v1.10.0
	github.com/mitchellh/mapstructure v1.5.0
	github.com/ncw/swift v1.0.53
	github.com/olekukonko/tablewriter v0.0.5
	github.com/opencontainers/go-digest v1.0.0
	github.com/opencontainers/image-spec v1.0.2
	github.com/prometheus/client_golang v1.19.0
	github.com/redis/go-redis/v9 v9.5.1
	github.com/rubenv/sql-migrate v1.5.2
	github.com/schollz/progressbar/v3 v3.14.2
	github.com/sirupsen/logrus v1.9.3
	github.com/spf13/cobra v1.8.0
	github.com/spf13/viper v1.18.2
	github.com/stretchr/testify v1.8.4
	github.com/trim21/go-redis-prometheus v0.0.0
	github.com/vmihailenco/msgpack/v5 v5.4.1
	github.com/xanzy/go-gitlab v0.98.0
	gitlab.com/gitlab-org/labkit v1.21.0
	go.uber.org/automaxprocs v1.5.3
	golang.org/x/crypto v0.20.0
	golang.org/x/oauth2 v0.17.0
	golang.org/x/sync v0.6.0
	golang.org/x/time v0.5.0
	google.golang.org/api v0.167.0
	gopkg.in/check.v1 v1.0.0-20201130134442-10cb98267c6c
	gopkg.in/yaml.v2 v2.4.0
)

require (
	cloud.google.com/go v0.112.1 // indirect
	cloud.google.com/go/compute v1.24.0 // indirect
	cloud.google.com/go/compute/metadata v0.2.3 // indirect
	cloud.google.com/go/iam v1.1.6 // indirect
	cloud.google.com/go/profiler v0.1.0 // indirect
	github.com/Azure/go-autorest v14.2.0+incompatible // indirect
	github.com/Azure/go-autorest/autorest v0.11.29 // indirect
	github.com/Azure/go-autorest/autorest/adal v0.9.23 // indirect
	github.com/Azure/go-autorest/autorest/date v0.3.0 // indirect
	github.com/Azure/go-autorest/autorest/to v0.4.0 // indirect
	github.com/Azure/go-autorest/logger v0.2.1 // indirect
	github.com/Azure/go-autorest/tracing v0.6.0 // indirect
	github.com/alicebob/gopher-json v0.0.0-20200520072559-a9ecdc9d1d3a // indirect
	github.com/beorn7/perks v1.0.1 // indirect
	github.com/cespare/xxhash/v2 v2.2.0 // indirect
	github.com/client9/reopen v1.0.0 // indirect
	github.com/davecgh/go-spew v1.1.2-0.20180830191138-d8f796af33cc // indirect
	github.com/dgryski/go-rendezvous v0.0.0-20200823014737-9f7001d12a5f // indirect
	github.com/dnaeon/go-vcr v1.0.1 // indirect
	github.com/felixge/httpsnoop v1.0.4 // indirect
	github.com/fsnotify/fsnotify v1.7.0 // indirect
	github.com/go-gorp/gorp/v3 v3.1.0 // indirect
	github.com/go-logr/logr v1.4.1 // indirect
	github.com/go-logr/stdr v1.2.2 // indirect
	github.com/gofrs/uuid v4.4.0+incompatible // indirect
	github.com/golang-jwt/jwt/v4 v4.5.0 // indirect
	github.com/golang/groupcache v0.0.0-20210331224755-41bb18bfe9da // indirect
	github.com/golang/protobuf v1.5.3 // indirect
	github.com/google/go-querystring v1.1.0 // indirect
	github.com/google/pprof v0.0.0-20210804190019-f964ff605595 // indirect
	github.com/google/s2a-go v0.1.7 // indirect
	github.com/google/uuid v1.6.0 // indirect
	github.com/googleapis/enterprise-certificate-proxy v0.3.2 // indirect
	github.com/googleapis/gax-go/v2 v2.12.2 // indirect
	github.com/hashicorp/errwrap v1.1.0 // indirect
	github.com/hashicorp/go-cleanhttp v0.5.2 // indirect
	github.com/hashicorp/go-retryablehttp v0.7.2 // indirect
	github.com/hashicorp/hcl v1.0.0 // indirect
	github.com/inconshreveable/mousetrap v1.1.0 // indirect
	github.com/jackc/pgpassfile v1.0.0 // indirect
	github.com/jackc/pgservicefile v0.0.0-20221227161230-091c0ba34f0a // indirect
	github.com/jackc/puddle/v2 v2.2.1 // indirect
	github.com/jmespath/go-jmespath v0.4.0 // indirect
	github.com/kr/pretty v0.3.1 // indirect
	github.com/kr/text v0.2.0 // indirect
	github.com/magiconair/properties v1.8.7 // indirect
	github.com/mattn/go-runewidth v0.0.12 // indirect
	github.com/mitchellh/colorstring v0.0.0-20190213212951-d06e56a500db // indirect
	github.com/oklog/ulid/v2 v2.0.2 // indirect
	github.com/opentracing/opentracing-go v1.2.0 // indirect
	github.com/pelletier/go-toml/v2 v2.1.0 // indirect
	github.com/pmezard/go-difflib v1.0.1-0.20181226105442-5d4384ee4fb2 // indirect
	github.com/prometheus/client_model v0.5.0 // indirect
	github.com/prometheus/common v0.48.0 // indirect
	github.com/prometheus/procfs v0.12.0 // indirect
	github.com/rivo/uniseg v0.4.7 // indirect
	github.com/rogpeppe/go-internal v1.10.0 // indirect
	github.com/sagikazarmark/locafero v0.4.0 // indirect
	github.com/sagikazarmark/slog-shim v0.1.0 // indirect
	github.com/sebest/xff v0.0.0-20210106013422-671bd2870b3a // indirect
	github.com/sourcegraph/conc v0.3.0 // indirect
	github.com/spf13/afero v1.11.0 // indirect
	github.com/spf13/cast v1.6.0 // indirect
	github.com/spf13/pflag v1.0.5 // indirect
	github.com/subosito/gotenv v1.6.0 // indirect
	github.com/vmihailenco/tagparser/v2 v2.0.0 // indirect
	github.com/yuin/gopher-lua v1.1.0 // indirect
	go.opencensus.io v0.24.0 // indirect
	go.opentelemetry.io/contrib/instrumentation/google.golang.org/grpc/otelgrpc v0.48.0 // indirect
	go.opentelemetry.io/contrib/instrumentation/net/http/otelhttp v0.48.0 // indirect
	go.opentelemetry.io/otel v1.23.0 // indirect
	go.opentelemetry.io/otel/metric v1.23.0 // indirect
	go.opentelemetry.io/otel/trace v1.23.0 // indirect
	go.uber.org/atomic v1.9.0 // indirect
	go.uber.org/multierr v1.9.0 // indirect
	golang.org/x/exp v0.0.0-20230905200255-921286631fa9 // indirect
	golang.org/x/net v0.21.0 // indirect
	golang.org/x/sys v0.17.0 // indirect
	golang.org/x/term v0.17.0 // indirect
	golang.org/x/text v0.14.0 // indirect
	google.golang.org/appengine v1.6.8 // indirect
	google.golang.org/genproto v0.0.0-20240213162025-012b6fc9bca9 // indirect
	google.golang.org/genproto/googleapis/api v0.0.0-20240304161311-37d4d3c04a78 // indirect
	google.golang.org/genproto/googleapis/rpc v0.0.0-20240228224816-df926f6c8641 // indirect
	google.golang.org/grpc v1.62.0 // indirect
	google.golang.org/protobuf v1.32.0 // indirect
	gopkg.in/ini.v1 v1.67.0 // indirect
	gopkg.in/yaml.v3 v3.0.1 // indirect
)
